<svg width="32" height="33" viewBox="0 0 32 33" fill="none" xmlns="http://www.w3.org/2000/svg">
<rect x="0.612372" y="7.63404" width="16.1406" height="25.6631" rx="3.5" transform="rotate(-15 0.612372 7.63404)" stroke="black"/>
<rect x="15.7873" y="0.611452" width="16.1406" height="25.6631" rx="3.5" transform="rotate(14.8512 15.7873 0.611452)" fill="white" stroke="black"/>
</svg>
